{
  "name": "ADV_Mubadala_Finance_DownloadInvoices",
  "description": "A process to download the attachments of the invoices from Oracle",
  "main": "Main.xaml",
  "dependencies": {
    "UiPath.Excel.Activities": "[2.20.2]",
    "UiPath.Mail.Activities": "[1.21.1]",
    "UiPath.System.Activities": "[23.4.3]",
    "UiPath.Testing.Activities": "[23.4.1]",
    "UiPath.UIAutomation.Activities": "[23.4.8]"
  },
  "webServices": [],
  "entitiesStores": [],
  "schemaVersion": "4.0",
  "studioVersion": "23.4.4.0",
  "projectVersion": "1.0.0",
  "runtimeOptions": {
    "autoDispose": false,
    "netFrameworkLazyLoading": false,
    "isPausable": true,
    "isAttended": false,
    "requiresUserInteraction": true,
    "supportsPersistence": false,
    "workflowSerialization": "DataContract",
    "excludedLoggedData": [
      "Private:*",
      "*password*"
    ],
    "executionType": "Workflow",
    "readyForPiP": false,
    "startsInPiP": false,
    "mustRestoreAllDependencies": true,
    "pipType": "ChildSession"
  },
  "designOptions": {
    "projectProfile": "Developement",
    "outputType": "Process",
    "libraryOptions": {
      "includeOriginalXaml": false,
      "privateWorkflows": []
    },
    "processOptions": {
      "ignoredFiles": []
    },
    "fileInfoCollection": [
      {
        "editingStatus": "InProgress",
        "testCaseId": "436c6de0-22f4-4497-8ee9-8cc1b4463b2b",
        "testCaseType": "TestCase",
        "executionTemplateType": "Local",
        "fileName": "Tests\\GetTransactionDataTestCase.xaml"
      },
      {
        "editingStatus": "InProgress",
        "testCaseId": "ec104829-feed-4d53-9cd8-945559ed4d13",
        "testCaseType": "TestCase",
        "executionTemplateType": "Local",
        "fileName": "Tests\\InitAllApplicationsTestCase.xaml"
      },
      {
        "editingStatus": "InProgress",
        "testCaseId": "2f26576e-f845-4831-930a-5a93d2919dea",
        "testCaseType": "TestCase",
        "executionTemplateType": "Local",
        "fileName": "Tests\\InitAllSettingsTestCase.xaml"
      },
      {
        "editingStatus": "InProgress",
        "testCaseId": "746d3724-356c-4392-89f7-a3a1d6189cf3",
        "testCaseType": "TestCase",
        "executionTemplateType": "Local",
        "fileName": "Tests\\MainTestCase.xaml"
      },
      {
        "editingStatus": "InProgress",
        "testCaseId": "62ea722c-17d2-4a46-8a3f-0edae2133f93",
        "testCaseType": "TestCase",
        "executionTemplateType": "Local",
        "fileName": "Tests\\ProcessTestCase.xaml"
      },
      {
        "editingStatus": "InProgress",
        "testCaseId": "1495e43e-fa28-4a04-b61e-e478366024e6",
        "testCaseType": "TestCase",
        "executionTemplateType": "Local",
        "fileName": "Tests\\WorkflowTestCaseTemplate.xaml"
      }
    ],
    "modernBehavior": false
  },
  "expressionLanguage": "VisualBasic",
  "entryPoints": [
    {
      "filePath": "Main.xaml",
      "uniqueId": "8865c8a1-f0bd-4043-ac4d-194c95666f0f",
      "input": [],
      "output": []
    }
  ],
  "isTemplate": false,
  "templateProjectData": {},
  "publishData": {},
  "targetFramework": "Windows"
}